{
  "files": [
    {
      "name": "smb3-multi.sh",
      "url": "https://raw.githubusercontent.com/PeterSuh-Q3/tcrp-addons/master/smb3-multi/src/smb3-multi.sh",
      "sha256": "ff132785d7afdff18cb9c435dbbde80d3419555579515b79f53cc1c8237e87b4",
      "packed": false
    },
    {
      "name": "install.sh",
      "url": "https://raw.githubusercontent.com/PeterSuh-Q3/tcrp-addons/master/smb3-multi/src/install.sh",
      "sha256": "50854f46a34320dc8b0f65c0da233e68bc983e57c5c18f013a4679b241effe91",
      "packed": false
    }
  ],

  "scripts": {
    "on_os_load": "install.sh"
  }
}
