{
  "id": "nvmevolume",
  "info": {
    "description": "007revad's NVMe Volume",
    "help_url": "https://github.com/PeterSuh-Q3/tcrp-addons/nvmevolume",
    "name": "007revad's Storage Panel",
    "packer_url": "https://github.com/PeterSuh-Q3/tcrp-addons/tree/main/nvmevolume"
  },
  "releases": {
    "apollolake_44180": "https://raw.githubusercontent.com/PeterSuh-Q3/tcrp-addons/master/nvmevolume/recipes/universal.json",
    "apollolake_44302": "https://raw.githubusercontent.com/PeterSuh-Q3/tcrp-addons/master/nvmevolume/recipes/universal.json",
    "bromolow_310108": "https://raw.githubusercontent.com/PeterSuh-Q3/tcrp-addons/master/nvmevolume/recipes/universal.json",
    "broadwell_44180": "https://raw.githubusercontent.com/PeterSuh-Q3/tcrp-addons/master/nvmevolume/recipes/universal.json",
    "broadwell_44302": "https://raw.githubusercontent.com/PeterSuh-Q3/tcrp-addons/master/nvmevolume/recipes/universal.json",
    "broadwellnk_44180": "https://raw.githubusercontent.com/PeterSuh-Q3/tcrp-addons/master/nvmevolume/recipes/universal.json",
    "broadwellnk_44302": "https://raw.githubusercontent.com/PeterSuh-Q3/tcrp-addons/master/nvmevolume/recipes/universal.json",
    "broadwellnkv2_44180": "https://raw.githubusercontent.com/PeterSuh-Q3/tcrp-addons/master/nvmevolume/recipes/universal.json",
    "broadwellnkv2_44302": "https://raw.githubusercontent.com/PeterSuh-Q3/tcrp-addons/master/nvmevolume/recipes/universal.json",
    "broadwellntbap_4459": "https://raw.githubusercontent.com/PeterSuh-Q3/tcrp-addons/master/nvmevolume/recipes/universal.json",
    "broadwellntbap_44180": "https://raw.githubusercontent.com/PeterSuh-Q3/tcrp-addons/master/nvmevolume/recipes/universal.json",
    "broadwellntbap_44302": "https://raw.githubusercontent.com/PeterSuh-Q3/tcrp-addons/master/nvmevolume/recipes/universal.json",
    "epyc7002_71_51055": "https://raw.githubusercontent.com/PeterSuh-Q3/tcrp-addons/master/nvmevolume/recipes/universal.json",
    "epyc7002_72_51055": "https://raw.githubusercontent.com/PeterSuh-Q3/tcrp-addons/master/nvmevolume/recipes/universal.json",
    "denverton_44180": "https://raw.githubusercontent.com/PeterSuh-Q3/tcrp-addons/master/nvmevolume/recipes/universal.json",
    "denverton_44302": "https://raw.githubusercontent.com/PeterSuh-Q3/tcrp-addons/master/nvmevolume/recipes/universal.json",
    "geminilake_44180": "https://raw.githubusercontent.com/PeterSuh-Q3/tcrp-addons/master/nvmevolume/recipes/universal.json",
    "geminilake_44302": "https://raw.githubusercontent.com/PeterSuh-Q3/tcrp-addons/master/nvmevolume/recipes/universal.json",
    "purley_44180": "https://raw.githubusercontent.com/PeterSuh-Q3/tcrp-addons/master/nvmevolume/recipes/universal.json",
    "purley_44302": "https://raw.githubusercontent.com/PeterSuh-Q3/tcrp-addons/master/nvmevolume/recipes/universal.json",
    "r1000_44180": "https://raw.githubusercontent.com/PeterSuh-Q3/tcrp-addons/master/nvmevolume/recipes/universal.json",
    "r1000_44302": "https://raw.githubusercontent.com/PeterSuh-Q3/tcrp-addons/master/nvmevolume/recipes/universal.json",
    "v1000_44180": "https://raw.githubusercontent.com/PeterSuh-Q3/tcrp-addons/master/nvmevolume/recipes/universal.json",
    "v1000_44302": "https://raw.githubusercontent.com/PeterSuh-Q3/tcrp-addons/master/nvmevolume/recipes/universal.json"
  },
  "url": "https://raw.githubusercontent.com/PeterSuh-Q3/tcrp-addons/master/nvmevolume/rpext-index.json"
}
